…
```r
activity_without_na$day_type <- ifelse(wday(activity_without_na$date, label = TRUE) %in% c("Sat", "Sun"), "weekend", "weekday")

library(ggplot2)
by_interval_day_type<- activity_without_na %>% group_by(interval, day_type) %>% summarise(average = mean(steps))
by_interval_day_type
```

```
## # A tibble: 576 x 3
## # Groups:   interval [?]
##    interval day_type  average
##       <int>    <chr>    <dbl>
##  1        0  weekday 7.006569
##  2        0  weekend 4.672825
##  3        5  weekday 5.384347
##  4        5  weekend 4.672825
##  5       10  weekday 5.139902
##  6       10  weekend 4.672825
##  7       15  weekday 5.162124
##  8       15  weekend 4.672825
##  9       20  weekday 5.073235
## 10       20  weekend 4.672825
## # ... with 566 more rows
```
…
